{
  "pages": [
    {
      "id": "HomePage-wide-widgets",
      "isDefault": true
    },
    {
      "id": "AllVersions",
      "isDefault": false
    },
    {
      "id": "Page1 Copy1",
      "isDefault": false
    },
    {
      "id": "Page1 Copy2",
      "isDefault": false
    },
    {
      "id": "Page1 Copy3",
      "isDefault": false
    },
    {
      "id": "Page1 Copy4",
      "isDefault": false
    },
    {
      "id": "Page1 Copy5",
      "isDefault": false
    },
    {
      "id": "Page1 Copy6",
      "isDefault": false
    },
    {
      "id": "Page1 Copy7",
      "isDefault": false
    },
    {
      "id": "Page1 Copy8",
      "isDefault": false
    },
    {
      "id": "Page1 Copy9",
      "isDefault": false
    },
    {
      "id": "switches",
      "isDefault": false
    }
  ],
  "viewMode": false,
  "appIsExample": false,
  "unreadCommentThreads": 0,
  "color": "#F5D1D1",
  "icon": "steam-bowl",
  "unpublishedAppLayout": {
    "type": "DESKTOP"
  },
  "publishedAppLayout": {
    "type": "DESKTOP"
  },
  "evaluationVersion": 2,
  "applicationVersion": 2,
  "isManualUpdate": false,
  "deleted": false
}